<!-- Generated by IcoMoon.io -->
<svg version="1.1" xmlns="http://www.w3.org/2000/svg" width="40" height="32" viewBox="0 0 40 32">
<title>lagaviota-logo</title>
<path fill="#7a858c" d="M4.692 30.172c0.099 0 0.183 0.021 0.268 0.056s0.155 0.085 0.226 0.148l-0.162 0.162c-0.092-0.092-0.198-0.134-0.332-0.134-0.064 0-0.127 0.014-0.183 0.035s-0.106 0.056-0.148 0.099c-0.042 0.042-0.078 0.092-0.099 0.148-0.028 0.056-0.035 0.12-0.035 0.183s0.014 0.127 0.035 0.183c0.028 0.056 0.056 0.106 0.099 0.148s0.092 0.078 0.148 0.099c0.056 0.021 0.12 0.035 0.183 0.035 0.127 0 0.233-0.042 0.332-0.134l0.162 0.162c-0.064 0.064-0.141 0.113-0.226 0.148s-0.176 0.056-0.268 0.056c-0.099 0-0.191-0.021-0.275-0.056s-0.155-0.085-0.226-0.148c-0.064-0.064-0.113-0.134-0.148-0.219s-0.056-0.176-0.056-0.275c0-0.092 0.021-0.183 0.056-0.268s0.085-0.162 0.148-0.226c0.064-0.064 0.141-0.113 0.226-0.148s0.176-0.056 0.275-0.056zM6.866 31.337h-0.642l-0.12 0.233h-0.261l0.699-1.397 0.699 1.397h-0.254l-0.12-0.233zM6.337 31.111h0.409l-0.205-0.409-0.205 0.409zM8.143 30.737v0.833h-0.233v-1.397l0.699 0.699 0.699-0.699v1.397h-0.233v-0.833l-0.466 0.466zM10.203 31.111v0.466h-0.233v-1.397h0.699c0.127 0 0.24 0.042 0.332 0.134s0.134 0.205 0.134 0.332c0 0.127-0.042 0.24-0.134 0.332s-0.198 0.134-0.332 0.134h-0.466zM10.203 30.412v0.466h0.466c0.063 0 0.12-0.021 0.162-0.071 0.042-0.042 0.071-0.099 0.071-0.162s-0.021-0.12-0.071-0.162c-0.042-0.042-0.099-0.071-0.162-0.071h-0.466zM11.798 30.172h0.233v1.397h-0.233zM12.694 30.172l0.931 0.84v-0.84h0.233v1.397l-0.931-0.833v0.833h-0.233zM15.22 30.172c0.099 0 0.191 0.021 0.275 0.056s0.162 0.085 0.226 0.148l-0.169 0.162c-0.092-0.092-0.198-0.134-0.325-0.134s-0.24 0.042-0.332 0.134c-0.092 0.092-0.134 0.198-0.134 0.325s0.042 0.24 0.134 0.332c0.092 0.092 0.205 0.134 0.332 0.134 0.071 0 0.134-0.014 0.198-0.042 0.056-0.028 0.113-0.064 0.155-0.113v-0.191h-0.353v-0.233h0.586v0.501c-0.035 0.049-0.071 0.092-0.113 0.127-0.042 0.042-0.092 0.071-0.141 0.099s-0.106 0.049-0.162 0.064c-0.056 0.014-0.113 0.021-0.176 0.021-0.191 0-0.36-0.071-0.494-0.205s-0.205-0.303-0.205-0.494 0.071-0.353 0.205-0.494c0.141-0.127 0.303-0.198 0.494-0.198zM18.262 31.57c-0.042-0.042-0.085-0.085-0.141-0.148-0.127 0.12-0.275 0.169-0.445 0.169-0.296 0-0.466-0.198-0.466-0.423 0-0.205 0.12-0.346 0.296-0.445v-0.007c-0.078-0.099-0.127-0.212-0.127-0.318 0-0.183 0.134-0.374 0.381-0.374 0.191 0 0.332 0.127 0.332 0.318 0 0.162-0.092 0.282-0.332 0.402v0.007c0.127 0.148 0.268 0.31 0.367 0.416 0.071-0.106 0.12-0.254 0.148-0.445h0.176c-0.042 0.24-0.106 0.423-0.219 0.557 0.078 0.085 0.162 0.169 0.247 0.268h-0.219zM18.022 31.316c-0.092-0.099-0.261-0.282-0.423-0.48-0.085 0.056-0.198 0.148-0.198 0.31 0 0.169 0.127 0.303 0.31 0.303 0.127 0 0.24-0.056 0.31-0.134zM17.563 30.391c0 0.113 0.049 0.191 0.113 0.275 0.155-0.085 0.254-0.169 0.254-0.296 0-0.092-0.049-0.198-0.176-0.198-0.127-0.007-0.191 0.099-0.191 0.219zM20.788 30.871c0.085 0.078 0.12 0.176 0.12 0.289 0 0.056-0.014 0.106-0.035 0.155s-0.049 0.092-0.085 0.127-0.078 0.064-0.127 0.085c-0.049 0.021-0.099 0.035-0.155 0.035h-0.755v-1.397h0.755c0.056 0 0.106 0.014 0.155 0.035s0.092 0.049 0.134 0.085c0.035 0.035 0.064 0.078 0.085 0.127s0.035 0.099 0.035 0.155c-0.007 0.127-0.049 0.226-0.127 0.303zM20.498 30.412h-0.522v0.353h0.522c0.021 0 0.042-0.007 0.064-0.014s0.042-0.021 0.056-0.035c0.014-0.014 0.028-0.035 0.035-0.056s0.014-0.042 0.014-0.071c0-0.021-0.007-0.042-0.014-0.064s-0.021-0.042-0.035-0.056c-0.014-0.014-0.035-0.028-0.056-0.035-0.014-0.021-0.035-0.021-0.064-0.021zM20.498 31.337c0.021 0 0.042-0.007 0.064-0.014s0.042-0.021 0.056-0.035c0.014-0.014 0.028-0.035 0.035-0.056s0.014-0.042 0.014-0.064c0-0.021-0.007-0.042-0.014-0.064s-0.021-0.042-0.035-0.056c-0.014-0.014-0.035-0.028-0.056-0.035s-0.042-0.014-0.071-0.014h-0.522v0.346h0.529zM22.735 30.991c0 0.162-0.056 0.296-0.169 0.409s-0.254 0.169-0.409 0.169c-0.155 0-0.296-0.056-0.409-0.169s-0.169-0.254-0.169-0.409v-0.819h0.233v0.819c0 0.099 0.035 0.176 0.099 0.247 0.071 0.071 0.148 0.106 0.247 0.106s0.176-0.035 0.247-0.106 0.106-0.148 0.106-0.247v-0.819h0.233v0.819zM23.398 30.172l0.931 0.84v-0.84h0.233v1.397l-0.931-0.833v0.833h-0.233zM25.925 30.172c0.099 0 0.191 0.021 0.275 0.056s0.162 0.085 0.226 0.148l-0.169 0.162c-0.092-0.092-0.198-0.134-0.332-0.134-0.127 0-0.24 0.042-0.332 0.134s-0.134 0.198-0.134 0.325 0.042 0.24 0.134 0.332c0.092 0.092 0.205 0.134 0.332 0.134 0.071 0 0.134-0.014 0.198-0.042 0.056-0.028 0.113-0.064 0.155-0.113v-0.191h-0.353v-0.233h0.586v0.501c-0.035 0.049-0.071 0.092-0.113 0.127-0.042 0.042-0.092 0.071-0.141 0.099s-0.106 0.049-0.162 0.064c-0.056 0.014-0.113 0.021-0.176 0.021-0.191 0-0.36-0.071-0.494-0.205s-0.205-0.303-0.205-0.494 0.071-0.353 0.205-0.494c0.148-0.127 0.31-0.198 0.501-0.198zM28.084 31.337h-0.642l-0.12 0.233h-0.261l0.699-1.397 0.699 1.397h-0.261l-0.113-0.233zM27.555 31.111h0.409l-0.205-0.409-0.205 0.409zM29.121 30.172h0.233v1.164h0.699v0.233h-0.931zM31.252 30.172c0.191 0 0.36 0.071 0.494 0.205 0.141 0.134 0.205 0.303 0.205 0.494 0 0.198-0.071 0.36-0.205 0.494s-0.296 0.205-0.494 0.205c-0.191 0-0.36-0.071-0.494-0.205s-0.205-0.303-0.205-0.494 0.071-0.36 0.205-0.494c0.134-0.134 0.296-0.205 0.494-0.205zM31.252 30.412c-0.127 0-0.24 0.042-0.332 0.134s-0.134 0.198-0.134 0.332c0 0.127 0.042 0.24 0.134 0.332s0.205 0.134 0.332 0.134c0.127 0 0.24-0.042 0.332-0.134s0.134-0.205 0.134-0.332c0-0.127-0.042-0.24-0.134-0.332-0.099-0.092-0.205-0.134-0.332-0.134zM32.6 30.172l0.445 0.882 0.438-0.882 0.438 0.882 0.438-0.882h0.261l-0.699 1.397-0.438-0.875-0.438 0.875-0.699-1.397zM35.549 30.991c-0.113 0-0.212-0.042-0.289-0.12s-0.12-0.176-0.12-0.289c0-0.113 0.042-0.205 0.12-0.289 0.078-0.078 0.176-0.12 0.289-0.12h0.755v0.233h-0.755c-0.021 0-0.049 0.007-0.071 0.014s-0.042 0.021-0.056 0.035c-0.014 0.014-0.028 0.035-0.035 0.056s-0.014 0.042-0.014 0.064c0 0.049 0.014 0.092 0.049 0.127s0.078 0.049 0.127 0.049h0.346c0.113 0 0.212 0.042 0.289 0.12s0.12 0.176 0.12 0.289c0 0.113-0.042 0.205-0.12 0.289-0.078 0.078-0.176 0.12-0.289 0.12h-0.755v-0.233h0.755c0.021 0 0.049-0.007 0.071-0.014s0.042-0.021 0.056-0.035c0.014-0.014 0.028-0.035 0.035-0.056s0.014-0.042 0.014-0.071c0-0.049-0.014-0.085-0.049-0.12s-0.078-0.049-0.12-0.049h-0.353z"></path>
<path fill="#c67119" d="M0.36 24.824h0.593v2.985h1.785v0.593h-2.378zM7.056 27.809h-1.644l-0.303 0.6h-0.663l1.792-3.578 1.792 3.578h-0.663l-0.31-0.6zM5.701 27.216h1.051l-0.522-1.051-0.529 1.051zM13.746 24.824c0.247 0 0.48 0.049 0.699 0.141s0.409 0.219 0.572 0.388l-0.43 0.423c-0.233-0.233-0.508-0.353-0.84-0.353-0.325 0-0.607 0.12-0.847 0.353-0.233 0.233-0.346 0.515-0.346 0.84s0.113 0.607 0.346 0.847c0.24 0.233 0.522 0.346 0.847 0.346 0.176 0 0.346-0.035 0.494-0.106 0.155-0.071 0.282-0.169 0.402-0.296v-0.487h-0.896v-0.6h1.496v1.277c-0.085 0.12-0.176 0.233-0.282 0.332s-0.226 0.183-0.353 0.254c-0.127 0.071-0.261 0.127-0.409 0.162-0.141 0.035-0.296 0.056-0.452 0.056-0.494 0-0.917-0.176-1.263-0.529-0.353-0.346-0.529-0.769-0.529-1.263s0.176-0.91 0.529-1.263c0.353-0.346 0.769-0.522 1.263-0.522zM19.264 27.809h-1.644l-0.303 0.6h-0.663l1.792-3.578 1.792 3.578h-0.663l-0.31-0.6zM17.916 27.216h1.051l-0.522-1.051-0.529 1.051zM20.872 24.824l1.129 2.244 1.122-2.244h0.663l-1.785 3.578-1.792-3.578zM25.487 24.824h0.593v3.578h-0.593zM29.573 24.824c0.494 0 0.917 0.176 1.263 0.522 0.353 0.353 0.529 0.769 0.529 1.263 0 0.501-0.176 0.917-0.529 1.263-0.346 0.353-0.769 0.529-1.263 0.529s-0.917-0.176-1.263-0.529c-0.353-0.346-0.529-0.769-0.529-1.263s0.176-0.91 0.529-1.263c0.346-0.346 0.762-0.522 1.263-0.522zM29.573 25.424c-0.325 0-0.607 0.12-0.847 0.353-0.233 0.233-0.346 0.515-0.346 0.84s0.113 0.607 0.346 0.847c0.24 0.233 0.515 0.346 0.847 0.346 0.325 0 0.607-0.113 0.84-0.346 0.233-0.24 0.353-0.522 0.353-0.847s-0.12-0.607-0.353-0.84c-0.233-0.233-0.515-0.353-0.84-0.353zM32.579 24.824h2.985v0.6h-1.193v2.978h-0.593v-2.978h-1.2zM38.647 27.809h-1.644l-0.303 0.6h-0.663l1.792-3.578 1.792 3.578h-0.67l-0.303-0.6zM37.299 27.216h1.051l-0.529-1.051-0.522 1.051z"></path>
<path fill="#c67119" d="M18.544 6.71c0.014-0.064 1.327 5.906 5.285 9.42 1.348-0.254 2.893-0.261 4.213 0.141 0.056 0.021 1.898 2.082 1.955 2.103-2.533-4.156-11.445-18.050-11.445-18.050l-10.239 16.356 0.028-0.007 0.035-0.035c0.141-0.113 0.282-0.212 0.423-0.303l0.056-0.028 0.021-0.021c4.798-3.105 7.063 4.325 11.311-1.475-2.576 2.42-4.333 0.529-6.322-0.346 3.585-2.434 4.248-5.864 4.678-7.755z"></path>
<path fill="#3790bc" d="M21.331 21.020c5.532-5.426 6.866 2.075 11.17-1.588-3.909 5.172-5.913-1.729-11.17 1.588z"></path>
<path fill="#3790bc" d="M8.136 20.061c3.253-2.611 5.998 1.143 9.039 0.868 1.912-0.176 3.563-2.505 5.807-3.443 3.126-1.305 5.8-0.183 7.338 1.623-1.235-3.225-4.594-4.389-7.875-3.055-2.039 0.826-3.606 3.112-5.567 3.168-2.872 0.078-5.751-3.295-8.743 0.84z"></path>
<path fill="#fff" d="M16.547 10.669c-0.741-0.797-4.128-2.83-8.094-2.202-6.407 1.009-7.938 0.205-8.058 0.106 2.053 1.715 12.595 0.205 13.767 2.47 0.106 0.205-1.023-0.183-1.559 0.353-0.367 0.367-0.388 0.416-0.43 0.586-0.049 0.169-0.042 0.226-0.056 0.247s-0.289 0.226-0.36 0.367c-0.071 0.134-0.049 0.191-0.028 0.233l0.028 0.042s0-0.042 0.035-0.099c0.035-0.049 0.367-0.268 0.621-0.332 0.219-0.056 0.565 0.106 1.256 0.24 1.439 0.296 4.121-0.183 5.236-0.466-1.164-0.056-1.651-0.79-2.357-1.545z"></path>
<path fill="#fff" d="M14.853 10.944c0.628-1.327 2.35-1.581 3.535-1.743 0.635-0.085 4.156-0.219 5.285-0.24 2.703-0.049 5.088-1.559 5.193-1.672-0.31 0.346-0.586 0.635-0.931 0.96-2.808 2.59-9.406 1.559-10.923 3.062"></path>
</svg>
