<?xml version="1.0" encoding="utf-8"?>
<!-- Generator: Adobe Illustrator 25.0.0, SVG Export Plug-In . SVG Version: 6.00 Build 0)  -->
<svg version="1.1" id="Capa_1" xmlns="http://www.w3.org/2000/svg" xmlns:xlink="http://www.w3.org/1999/xlink" x="0px" y="0px"
	 viewBox="0 0 100 100" style="enable-background:new 0 0 100 100;" xml:space="preserve">
<style type="text/css">
	.st0{opacity:0.25;fill:#D07400;}
</style>
<path class="st0" d="M62.1,21.7l0.5,0c0.8,0,1.5,0.4,1.9,1.1c0.8,1.3,2.1,3.4,2.5,4l2.8,0c0.5,0,1,0.2,1.4,0.5
	c2,1.5,7.5,5.7,10.3,7.7c0.9,0.7,1.2,1.9,0.7,2.8c-1.1,2.2-3,5.9-3.9,7.9c-0.4,0.8-1.2,1.3-2.1,1.3h-5c-0.8,0-1.5,0.7-1.5,1.5v9
	c-0.2,0.3-2.4,7.1-2.5,7.5c0,0,0,6.9,0,6.9c0.3,1.5,1.8,6.6,2.4,10.1c0.2,1.5-0.9,2.9-2.4,2.9h-0.1c-1.3,0-2.3-0.9-2.5-2.1
	c-0.5-3.3-2.1-9-2.4-10.2c0,0,0-8.3,0-8.3c3-5.2,2.7-16.6,2.5-22.3h8.8c0.6,0,1.2-0.3,1.4-0.9l1.1-2.2c0.3-0.7,0.1-1.5-0.4-1.9
	l-6.1-4.6c-0.4-0.3-0.9-0.5-1.4-0.5l-2.9,0c-0.7,0-1.3-0.3-1.6-0.9c-0.3-0.5-0.6-0.9-0.8-1.2l-5.2,14l3.7,3.6
	c0.6,0.6,0.9,1.3,0.9,2.1v3.3c0,0.9-1.1,1.4-1.8,0.8l-6.6-6.5c-11.9,0.9-34.5-5.5-24.3,15.5c0.1,0.1-2.5,9.6-2.6,10c0,0,0,6.2,0,9.8
	c0,1.4-1.1,2.5-2.5,2.5h0c-1.4,0-2.5-1.1-2.5-2.5V71.8c0.1-0.3,2.4-8.9,2.4-9.2c-1.9-4.7-3.9-10.9-0.6-15.4L19.4,43
	c-1-1-1-2.6,0-3.6l0,0c1-1,2.6-1,3.6,0l3.2,3.2c0.6,0.6,1.5,0.7,2.3,0.4c4.8-2,17-1,22.7-1c1.1,0,2-0.7,2.4-1.7
	c1.5-3.9,5-13.4,6.4-17.1C60.3,22.3,61.1,21.7,62.1,21.7z M35.1,59.5h7.8c1.8,2.3,10.7,2.9,14.3,2.5v9.8c0.3,1.5,1.8,6.5,2.4,10
	c0.3,1.6-0.9,3-2.5,3h0c-1.3,0-2.3-1-2.5-2.2c-0.7-4.7-3.1-11.4-2.4-15.4c-3.6,0.6-10.1-1.5-10.8-2.5H39c-1.7,3.9-2.1,12.2-2.1,17.7
	c0,1.4-1.1,2.5-2.5,2.5h0c-1.4,0-2.5-1.1-2.5-2.5V71.8L35.1,59.5z"/>
</svg>
